﻿-d:DEBUG
-d:TRACE
-d:NET461
-nowarn:CS1701
-nowarn:CS1702
-nowarn:CS1705
-platform:x64
-debug:full
-nostdlib
-nologo
"C:\Users\SUPER-PC\Desktop\Новая папка (2)\shipsharp\WebApplication1\src\WebApplication1\obj\Debug\net461\dotnet-compile.assemblyinfo.cs"
-out:"C:\Users\SUPER-PC\Desktop\Новая папка (2)\shipsharp\WebApplication1\src\WebApplication1\bin\Debug\net461\WebApplication1.exe"
-r:"C:\Users\SUPER-PC\.nuget\packages\Microsoft.AspNetCore.Antiforgery\1.0.1\lib\net451\Microsoft.AspNetCore.Antiforgery.dll"
-r:"C:\Users\SUPER-PC\.nuget\packages\Microsoft.AspNetCore.Authorization\1.0.0\lib\net451\Microsoft.AspNetCore.Authorization.dll"
-r:"C:\Users\SUPER-PC\.nuget\packages\Microsoft.AspNetCore.Cors\1.0.0\lib\net451\Microsoft.AspNetCore.Cors.dll"
-r:"C:\Users\SUPER-PC\.nuget\packages\Microsoft.AspNetCore.Cryptography.Internal\1.0.0\lib\net451\Microsoft.AspNetCore.Cryptography.Internal.dll"
-r:"C:\Users\SUPER-PC\.nuget\packages\Microsoft.AspNetCore.DataProtection\1.0.0\lib\net451\Microsoft.AspNetCore.DataProtection.dll"
-r:"C:\Users\SUPER-PC\.nuget\packages\Microsoft.AspNetCore.DataProtection.Abstractions\1.0.0\lib\net451\Microsoft.AspNetCore.DataProtection.Abstractions.dll"
-r:"C:\Users\SUPER-PC\.nuget\packages\Microsoft.AspNetCore.Diagnostics\1.0.0\lib\net451\Microsoft.AspNetCore.Diagnostics.dll"
-r:"C:\Users\SUPER-PC\.nuget\packages\Microsoft.AspNetCore.Diagnostics.Abstractions\1.0.0\lib\netstandard1.0\Microsoft.AspNetCore.Diagnostics.Abstractions.dll"
-r:"C:\Users\SUPER-PC\.nuget\packages\Microsoft.AspNetCore.Hosting\1.0.0\lib\net451\Microsoft.AspNetCore.Hosting.dll"
-r:"C:\Users\SUPER-PC\.nuget\packages\Microsoft.AspNetCore.Hosting.Abstractions\1.0.0\lib\net451\Microsoft.AspNetCore.Hosting.Abstractions.dll"
-r:"C:\Users\SUPER-PC\.nuget\packages\Microsoft.AspNetCore.Hosting.Server.Abstractions\1.0.0\lib\net451\Microsoft.AspNetCore.Hosting.Server.Abstractions.dll"
-r:"C:\Users\SUPER-PC\.nuget\packages\Microsoft.AspNetCore.Html.Abstractions\1.0.0\lib\netstandard1.0\Microsoft.AspNetCore.Html.Abstractions.dll"
-r:"C:\Users\SUPER-PC\.nuget\packages\Microsoft.AspNetCore.Http\1.0.0\lib\net451\Microsoft.AspNetCore.Http.dll"
-r:"C:\Users\SUPER-PC\.nuget\packages\Microsoft.AspNetCore.Http.Abstractions\1.0.0\lib\net451\Microsoft.AspNetCore.Http.Abstractions.dll"
-r:"C:\Users\SUPER-PC\.nuget\packages\Microsoft.AspNetCore.Http.Extensions\1.0.0\lib\net451\Microsoft.AspNetCore.Http.Extensions.dll"
-r:"C:\Users\SUPER-PC\.nuget\packages\Microsoft.AspNetCore.Http.Features\1.0.0\lib\net451\Microsoft.AspNetCore.Http.Features.dll"
-r:"C:\Users\SUPER-PC\.nuget\packages\Microsoft.AspNetCore.HttpOverrides\1.0.0\lib\net451\Microsoft.AspNetCore.HttpOverrides.dll"
-r:"C:\Users\SUPER-PC\.nuget\packages\Microsoft.AspNetCore.JsonPatch\1.0.0\lib\netstandard1.1\Microsoft.AspNetCore.JsonPatch.dll"
-r:"C:\Users\SUPER-PC\.nuget\packages\Microsoft.AspNetCore.Localization\1.0.0\lib\net451\Microsoft.AspNetCore.Localization.dll"
-r:"C:\Users\SUPER-PC\.nuget\packages\Microsoft.AspNetCore.Mvc\1.0.1\lib\net451\Microsoft.AspNetCore.Mvc.dll"
-r:"C:\Users\SUPER-PC\.nuget\packages\Microsoft.AspNetCore.Mvc.Abstractions\1.0.1\lib\net451\Microsoft.AspNetCore.Mvc.Abstractions.dll"
-r:"C:\Users\SUPER-PC\.nuget\packages\Microsoft.AspNetCore.Mvc.ApiExplorer\1.0.1\lib\net451\Microsoft.AspNetCore.Mvc.ApiExplorer.dll"
-r:"C:\Users\SUPER-PC\.nuget\packages\Microsoft.AspNetCore.Mvc.Core\1.0.1\lib\net451\Microsoft.AspNetCore.Mvc.Core.dll"
-r:"C:\Users\SUPER-PC\.nuget\packages\Microsoft.AspNetCore.Mvc.Cors\1.0.1\lib\net451\Microsoft.AspNetCore.Mvc.Cors.dll"
-r:"C:\Users\SUPER-PC\.nuget\packages\Microsoft.AspNetCore.Mvc.DataAnnotations\1.0.1\lib\net451\Microsoft.AspNetCore.Mvc.DataAnnotations.dll"
-r:"C:\Users\SUPER-PC\.nuget\packages\Microsoft.AspNetCore.Mvc.Formatters.Json\1.0.1\lib\net451\Microsoft.AspNetCore.Mvc.Formatters.Json.dll"
-r:"C:\Users\SUPER-PC\.nuget\packages\Microsoft.AspNetCore.Mvc.Localization\1.0.1\lib\net451\Microsoft.AspNetCore.Mvc.Localization.dll"
-r:"C:\Users\SUPER-PC\.nuget\packages\Microsoft.AspNetCore.Mvc.Razor\1.0.1\lib\net451\Microsoft.AspNetCore.Mvc.Razor.dll"
-r:"C:\Users\SUPER-PC\.nuget\packages\Microsoft.AspNetCore.Mvc.Razor.Host\1.0.1\lib\net451\Microsoft.AspNetCore.Mvc.Razor.Host.dll"
-r:"C:\Users\SUPER-PC\.nuget\packages\Microsoft.AspNetCore.Mvc.TagHelpers\1.0.1\lib\net451\Microsoft.AspNetCore.Mvc.TagHelpers.dll"
-r:"C:\Users\SUPER-PC\.nuget\packages\Microsoft.AspNetCore.Mvc.ViewFeatures\1.0.1\lib\net451\Microsoft.AspNetCore.Mvc.ViewFeatures.dll"
-r:"C:\Users\SUPER-PC\.nuget\packages\Microsoft.AspNetCore.Razor\1.0.0\lib\net451\Microsoft.AspNetCore.Razor.dll"
-r:"C:\Users\SUPER-PC\.nuget\packages\Microsoft.AspNetCore.Razor.Runtime\1.0.0\lib\net451\Microsoft.AspNetCore.Razor.Runtime.dll"
-r:"C:\Users\SUPER-PC\.nuget\packages\Microsoft.AspNetCore.Razor.Tools\1.0.0-preview2-final\lib\net451\dotnet-razor-tooling.exe"
-r:"C:\Users\SUPER-PC\.nuget\packages\Microsoft.AspNetCore.Routing\1.0.1\lib\net451\Microsoft.AspNetCore.Routing.dll"
-r:"C:\Users\SUPER-PC\.nuget\packages\Microsoft.AspNetCore.Routing.Abstractions\1.0.1\lib\net451\Microsoft.AspNetCore.Routing.Abstractions.dll"
-r:"C:\Users\SUPER-PC\.nuget\packages\Microsoft.AspNetCore.Server.IISIntegration\1.0.0\lib\net451\Microsoft.AspNetCore.Server.IISIntegration.dll"
-r:"C:\Users\SUPER-PC\.nuget\packages\Microsoft.AspNetCore.Server.Kestrel\1.0.1\lib\net451\Microsoft.AspNetCore.Server.Kestrel.dll"
-r:"C:\Users\SUPER-PC\.nuget\packages\Microsoft.AspNetCore.StaticFiles\1.0.0\lib\net451\Microsoft.AspNetCore.StaticFiles.dll"
-r:"C:\Users\SUPER-PC\.nuget\packages\Microsoft.AspNetCore.WebUtilities\1.0.0\lib\net451\Microsoft.AspNetCore.WebUtilities.dll"
-r:"C:\Users\SUPER-PC\.nuget\packages\Microsoft.CodeAnalysis.Common\1.3.0\lib\net45\Microsoft.CodeAnalysis.dll"
-r:"C:\Users\SUPER-PC\.nuget\packages\Microsoft.CodeAnalysis.CSharp\1.3.0\lib\net45\Microsoft.CodeAnalysis.CSharp.dll"
-r:"C:\Program Files (x86)\Reference Assemblies\Microsoft\Framework\.NETFramework\v4.6.1\Microsoft.CSharp.dll"
-r:"C:\Users\SUPER-PC\.nuget\packages\Microsoft.DotNet.Cli.Utils\1.0.0-preview2-003121\lib\net451\Microsoft.DotNet.Cli.Utils.dll"
-r:"C:\Users\SUPER-PC\.nuget\packages\Microsoft.DotNet.InternalAbstractions\1.0.0\lib\net451\Microsoft.DotNet.InternalAbstractions.dll"
-r:"C:\Users\SUPER-PC\.nuget\packages\Microsoft.DotNet.ProjectModel\1.0.0-rc3-003121\lib\net451\Microsoft.DotNet.ProjectModel.dll"
-r:"C:\Users\SUPER-PC\.nuget\packages\Microsoft.Extensions.Caching.Abstractions\1.0.0\lib\netstandard1.0\Microsoft.Extensions.Caching.Abstractions.dll"
-r:"C:\Users\SUPER-PC\.nuget\packages\Microsoft.Extensions.Caching.Memory\1.0.0\lib\net451\Microsoft.Extensions.Caching.Memory.dll"
-r:"C:\Users\SUPER-PC\.nuget\packages\Microsoft.Extensions.CommandLineUtils\1.0.0\lib\net451\Microsoft.Extensions.CommandLineUtils.dll"
-r:"C:\Users\SUPER-PC\.nuget\packages\Microsoft.Extensions.Configuration\1.0.0\lib\netstandard1.1\Microsoft.Extensions.Configuration.dll"
-r:"C:\Users\SUPER-PC\.nuget\packages\Microsoft.Extensions.Configuration.Abstractions\1.0.0\lib\netstandard1.0\Microsoft.Extensions.Configuration.Abstractions.dll"
-r:"C:\Users\SUPER-PC\.nuget\packages\Microsoft.Extensions.Configuration.Binder\1.0.0\lib\netstandard1.1\Microsoft.Extensions.Configuration.Binder.dll"
-r:"C:\Users\SUPER-PC\.nuget\packages\Microsoft.Extensions.Configuration.EnvironmentVariables\1.0.0\lib\net451\Microsoft.Extensions.Configuration.EnvironmentVariables.dll"
-r:"C:\Users\SUPER-PC\.nuget\packages\Microsoft.Extensions.Configuration.FileExtensions\1.0.0\lib\net451\Microsoft.Extensions.Configuration.FileExtensions.dll"
-r:"C:\Users\SUPER-PC\.nuget\packages\Microsoft.Extensions.Configuration.Json\1.0.0\lib\net451\Microsoft.Extensions.Configuration.Json.dll"
-r:"C:\Users\SUPER-PC\.nuget\packages\Microsoft.Extensions.DependencyInjection\1.0.0\lib\netstandard1.1\Microsoft.Extensions.DependencyInjection.dll"
-r:"C:\Users\SUPER-PC\.nuget\packages\Microsoft.Extensions.DependencyInjection.Abstractions\1.0.0\lib\netstandard1.0\Microsoft.Extensions.DependencyInjection.Abstractions.dll"
-r:"C:\Users\SUPER-PC\.nuget\packages\Microsoft.Extensions.DependencyModel\1.0.0\lib\net451\Microsoft.Extensions.DependencyModel.dll"
-r:"C:\Users\SUPER-PC\.nuget\packages\Microsoft.Extensions.FileProviders.Abstractions\1.0.0\lib\netstandard1.0\Microsoft.Extensions.FileProviders.Abstractions.dll"
-r:"C:\Users\SUPER-PC\.nuget\packages\Microsoft.Extensions.FileProviders.Composite\1.0.0\lib\netstandard1.0\Microsoft.Extensions.FileProviders.Composite.dll"
-r:"C:\Users\SUPER-PC\.nuget\packages\Microsoft.Extensions.FileProviders.Physical\1.0.0\lib\net451\Microsoft.Extensions.FileProviders.Physical.dll"
-r:"C:\Users\SUPER-PC\.nuget\packages\Microsoft.Extensions.FileSystemGlobbing\1.0.0\lib\net451\Microsoft.Extensions.FileSystemGlobbing.dll"
-r:"C:\Users\SUPER-PC\.nuget\packages\Microsoft.Extensions.Globalization.CultureInfoCache\1.0.0\lib\netstandard1.1\Microsoft.Extensions.Globalization.CultureInfoCache.dll"
-r:"C:\Users\SUPER-PC\.nuget\packages\Microsoft.Extensions.Localization\1.0.0\lib\net451\Microsoft.Extensions.Localization.dll"
-r:"C:\Users\SUPER-PC\.nuget\packages\Microsoft.Extensions.Localization.Abstractions\1.0.0\lib\netstandard1.0\Microsoft.Extensions.Localization.Abstractions.dll"
-r:"C:\Users\SUPER-PC\.nuget\packages\Microsoft.Extensions.Logging\1.0.0\lib\netstandard1.1\Microsoft.Extensions.Logging.dll"
-r:"C:\Users\SUPER-PC\.nuget\packages\Microsoft.Extensions.Logging.Abstractions\1.0.0\lib\netstandard1.1\Microsoft.Extensions.Logging.Abstractions.dll"
-r:"C:\Users\SUPER-PC\.nuget\packages\Microsoft.Extensions.Logging.Console\1.0.0\lib\net451\Microsoft.Extensions.Logging.Console.dll"
-r:"C:\Users\SUPER-PC\.nuget\packages\Microsoft.Extensions.Logging.Debug\1.0.0\lib\net451\Microsoft.Extensions.Logging.Debug.dll"
-r:"C:\Users\SUPER-PC\.nuget\packages\Microsoft.Extensions.ObjectPool\1.0.0\lib\net451\Microsoft.Extensions.ObjectPool.dll"
-r:"C:\Users\SUPER-PC\.nuget\packages\Microsoft.Extensions.Options\1.0.0\lib\netstandard1.0\Microsoft.Extensions.Options.dll"
-r:"C:\Users\SUPER-PC\.nuget\packages\Microsoft.Extensions.Options.ConfigurationExtensions\1.0.0\lib\netstandard1.1\Microsoft.Extensions.Options.ConfigurationExtensions.dll"
-r:"C:\Users\SUPER-PC\.nuget\packages\Microsoft.Extensions.PlatformAbstractions\1.0.0\lib\net451\Microsoft.Extensions.PlatformAbstractions.dll"
-r:"C:\Users\SUPER-PC\.nuget\packages\Microsoft.Extensions.Primitives\1.0.0\lib\netstandard1.0\Microsoft.Extensions.Primitives.dll"
-r:"C:\Users\SUPER-PC\.nuget\packages\Microsoft.Extensions.WebEncoders\1.0.0\lib\netstandard1.0\Microsoft.Extensions.WebEncoders.dll"
-r:"C:\Users\SUPER-PC\.nuget\packages\Microsoft.Net.Http.Headers\1.0.0\lib\netstandard1.1\Microsoft.Net.Http.Headers.dll"
-r:"C:\Users\SUPER-PC\.nuget\packages\Microsoft.VisualStudio.Web.BrowserLink.Loader\14.0.0\lib\net451\Microsoft.VisualStudio.Web.BrowserLink.Loader.dll"
-r:"C:\Users\SUPER-PC\.nuget\packages\Newtonsoft.Json\9.0.1\lib\net45\Newtonsoft.Json.dll"
-r:"C:\Users\SUPER-PC\.nuget\packages\NuGet.Common\3.5.0-beta2-1484\lib\net45\NuGet.Common.dll"
-r:"C:\Users\SUPER-PC\.nuget\packages\NuGet.Configuration\3.5.0-beta2-1484\lib\net45\NuGet.Configuration.dll"
-r:"C:\Users\SUPER-PC\.nuget\packages\NuGet.DependencyResolver.Core\3.5.0-beta2-1484\lib\net45\NuGet.DependencyResolver.Core.dll"
-r:"C:\Users\SUPER-PC\.nuget\packages\NuGet.Frameworks\3.5.0-beta2-1484\lib\net45\NuGet.Frameworks.dll"
-r:"C:\Users\SUPER-PC\.nuget\packages\NuGet.LibraryModel\3.5.0-beta2-1484\lib\net45\NuGet.LibraryModel.dll"
-r:"C:\Users\SUPER-PC\.nuget\packages\NuGet.Packaging\3.5.0-beta2-1484\lib\net45\NuGet.Packaging.dll"
-r:"C:\Users\SUPER-PC\.nuget\packages\NuGet.Packaging.Core\3.5.0-beta2-1484\lib\net45\NuGet.Packaging.Core.dll"
-r:"C:\Users\SUPER-PC\.nuget\packages\NuGet.Packaging.Core.Types\3.5.0-beta2-1484\lib\net45\NuGet.Packaging.Core.Types.dll"
-r:"C:\Users\SUPER-PC\.nuget\packages\NuGet.ProjectModel\3.5.0-beta2-1484\lib\net45\NuGet.ProjectModel.dll"
-r:"C:\Users\SUPER-PC\.nuget\packages\NuGet.Protocol.Core.Types\3.5.0-beta2-1484\lib\net45\NuGet.Protocol.Core.Types.dll"
-r:"C:\Users\SUPER-PC\.nuget\packages\NuGet.Protocol.Core.v3\3.5.0-beta2-1484\lib\net45\NuGet.Protocol.Core.v3.dll"
-r:"C:\Users\SUPER-PC\.nuget\packages\NuGet.Repositories\3.5.0-beta2-1484\lib\net45\NuGet.Repositories.dll"
-r:"C:\Users\SUPER-PC\.nuget\packages\NuGet.RuntimeModel\3.5.0-beta2-1484\lib\net45\NuGet.RuntimeModel.dll"
-r:"C:\Users\SUPER-PC\.nuget\packages\NuGet.Versioning\3.5.0-beta2-1484\lib\net45\NuGet.Versioning.dll"
-r:"C:\Users\SUPER-PC\.nuget\packages\System.AppContext\4.1.0\ref\net46\System.AppContext.dll"
-r:"C:\Users\SUPER-PC\.nuget\packages\System.Buffers\4.0.0\lib\netstandard1.1\System.Buffers.dll"
-r:"C:\Program Files (x86)\Reference Assemblies\Microsoft\Framework\.NETFramework\v4.6.1\Facades\System.Collections.dll"
-r:"C:\Program Files (x86)\Reference Assemblies\Microsoft\Framework\.NETFramework\v4.6.1\Facades\System.Collections.Concurrent.dll"
-r:"C:\Users\SUPER-PC\.nuget\packages\System.Collections.Immutable\1.2.0\lib\portable-net45+win8+wp8+wpa81\System.Collections.Immutable.dll"
-r:"C:\Program Files (x86)\Reference Assemblies\Microsoft\Framework\.NETFramework\v4.6.1\Facades\System.ComponentModel.dll"
-r:"C:\Users\SUPER-PC\.nuget\packages\System.ComponentModel.Primitives\4.1.0\ref\net45\System.ComponentModel.Primitives.dll"
-r:"C:\Users\SUPER-PC\.nuget\packages\System.ComponentModel.TypeConverter\4.1.0\ref\net45\System.ComponentModel.TypeConverter.dll"
-r:"C:\Users\SUPER-PC\.nuget\packages\System.Console\4.0.0\ref\net46\System.Console.dll"
-r:"C:\Program Files (x86)\Reference Assemblies\Microsoft\Framework\.NETFramework\v4.6.1\Facades\System.Diagnostics.Contracts.dll"
-r:"C:\Program Files (x86)\Reference Assemblies\Microsoft\Framework\.NETFramework\v4.6.1\Facades\System.Diagnostics.Debug.dll"
-r:"C:\Users\SUPER-PC\.nuget\packages\System.Diagnostics.DiagnosticSource\4.0.0\lib\net46\System.Diagnostics.DiagnosticSource.dll"
-r:"C:\Program Files (x86)\Reference Assemblies\Microsoft\Framework\.NETFramework\v4.6.1\Facades\System.Diagnostics.Tools.dll"
-r:"C:\Program Files (x86)\Reference Assemblies\Microsoft\Framework\.NETFramework\v4.6.1\Facades\System.Dynamic.Runtime.dll"
-r:"C:\Program Files (x86)\Reference Assemblies\Microsoft\Framework\.NETFramework\v4.6.1\Facades\System.Globalization.dll"
-r:"C:\Program Files (x86)\Reference Assemblies\Microsoft\Framework\.NETFramework\v4.6.1\Facades\System.IO.dll"
-r:"C:\Users\SUPER-PC\.nuget\packages\System.IO.FileSystem\4.0.1\ref\net46\System.IO.FileSystem.dll"
-r:"C:\Users\SUPER-PC\.nuget\packages\System.IO.FileSystem.Primitives\4.0.1\ref\net46\System.IO.FileSystem.Primitives.dll"
-r:"C:\Program Files (x86)\Reference Assemblies\Microsoft\Framework\.NETFramework\v4.6.1\Facades\System.Linq.dll"
-r:"C:\Program Files (x86)\Reference Assemblies\Microsoft\Framework\.NETFramework\v4.6.1\Facades\System.Linq.Expressions.dll"
-r:"C:\Users\SUPER-PC\.nuget\packages\System.Numerics.Vectors\4.1.1\ref\net46\System.Numerics.Vectors.dll"
-r:"C:\Program Files (x86)\Reference Assemblies\Microsoft\Framework\.NETFramework\v4.6.1\Facades\System.Reflection.dll"
-r:"C:\Program Files (x86)\Reference Assemblies\Microsoft\Framework\.NETFramework\v4.6.1\Facades\System.Reflection.Extensions.dll"
-r:"C:\Users\SUPER-PC\.nuget\packages\System.Reflection.Metadata\1.3.0\lib\portable-net45+win8\System.Reflection.Metadata.dll"
-r:"C:\Program Files (x86)\Reference Assemblies\Microsoft\Framework\.NETFramework\v4.6.1\Facades\System.Reflection.Primitives.dll"
-r:"C:\Program Files (x86)\Reference Assemblies\Microsoft\Framework\.NETFramework\v4.6.1\Facades\System.Resources.ResourceManager.dll"
-r:"C:\Program Files (x86)\Reference Assemblies\Microsoft\Framework\.NETFramework\v4.6.1\Facades\System.Runtime.dll"
-r:"C:\Program Files (x86)\Reference Assemblies\Microsoft\Framework\.NETFramework\v4.6.1\Facades\System.Runtime.Extensions.dll"
-r:"C:\Program Files (x86)\Reference Assemblies\Microsoft\Framework\.NETFramework\v4.6.1\Facades\System.Runtime.Handles.dll"
-r:"C:\Program Files (x86)\Reference Assemblies\Microsoft\Framework\.NETFramework\v4.6.1\Facades\System.Runtime.InteropServices.dll"
-r:"C:\Users\SUPER-PC\.nuget\packages\System.Runtime.InteropServices.RuntimeInformation\4.0.0\ref\netstandard1.1\System.Runtime.InteropServices.RuntimeInformation.dll"
-r:"C:\Program Files (x86)\Reference Assemblies\Microsoft\Framework\.NETFramework\v4.6.1\Facades\System.Runtime.Numerics.dll"
-r:"C:\Users\SUPER-PC\.nuget\packages\System.Runtime.Serialization.Primitives\4.1.1\ref\net46\System.Runtime.Serialization.Primitives.dll"
-r:"C:\Users\SUPER-PC\.nuget\packages\System.Security.Cryptography.Algorithms\4.2.0\ref\net461\System.Security.Cryptography.Algorithms.dll"
-r:"C:\Users\SUPER-PC\.nuget\packages\System.Security.Cryptography.Encoding\4.0.0\ref\net46\System.Security.Cryptography.Encoding.dll"
-r:"C:\Users\SUPER-PC\.nuget\packages\System.Security.Cryptography.Primitives\4.0.0\ref\net46\System.Security.Cryptography.Primitives.dll"
-r:"C:\Users\SUPER-PC\.nuget\packages\System.Security.Cryptography.X509Certificates\4.1.0\ref\net461\System.Security.Cryptography.X509Certificates.dll"
-r:"C:\Program Files (x86)\Reference Assemblies\Microsoft\Framework\.NETFramework\v4.6.1\Facades\System.Text.Encoding.dll"
-r:"C:\Program Files (x86)\Reference Assemblies\Microsoft\Framework\.NETFramework\v4.6.1\Facades\System.Text.Encoding.Extensions.dll"
-r:"C:\Users\SUPER-PC\.nuget\packages\System.Text.Encodings.Web\4.0.0\lib\netstandard1.0\System.Text.Encodings.Web.dll"
-r:"C:\Program Files (x86)\Reference Assemblies\Microsoft\Framework\.NETFramework\v4.6.1\Facades\System.Threading.dll"
-r:"C:\Program Files (x86)\Reference Assemblies\Microsoft\Framework\.NETFramework\v4.6.1\Facades\System.Threading.Tasks.dll"
-r:"C:\Users\SUPER-PC\.nuget\packages\System.Threading.Tasks.Extensions\4.0.0\lib\portable-net45+win8+wp8+wpa81\System.Threading.Tasks.Extensions.dll"
-r:"C:\Program Files (x86)\Reference Assemblies\Microsoft\Framework\.NETFramework\v4.6.1\Facades\System.Threading.Tasks.Parallel.dll"
-r:"C:\Program Files (x86)\Reference Assemblies\Microsoft\Framework\.NETFramework\v4.6.1\Facades\System.Xml.ReaderWriter.dll"
-r:"C:\Program Files (x86)\Reference Assemblies\Microsoft\Framework\.NETFramework\v4.6.1\Facades\System.Xml.XDocument.dll"
-r:"C:\Program Files (x86)\Reference Assemblies\Microsoft\Framework\.NETFramework\v4.6.1\mscorlib.dll"
-r:"C:\Program Files (x86)\Reference Assemblies\Microsoft\Framework\.NETFramework\v4.6.1\System.dll"
-r:"C:\Program Files (x86)\Reference Assemblies\Microsoft\Framework\.NETFramework\v4.6.1\System.Core.dll"
-r:"C:\Program Files (x86)\Reference Assemblies\Microsoft\Framework\.NETFramework\v4.6.1\System.Security.dll"
-r:"C:\Program Files (x86)\Reference Assemblies\Microsoft\Framework\.NETFramework\v4.6.1\System.Xml.dll"
-r:"C:\Program Files (x86)\Reference Assemblies\Microsoft\Framework\.NETFramework\v4.6.1\System.Xml.Linq.dll"
-r:"C:\Program Files (x86)\Reference Assemblies\Microsoft\Framework\.NETFramework\v4.6.1\System.ComponentModel.DataAnnotations.dll"
-r:"C:\Program Files (x86)\Reference Assemblies\Microsoft\Framework\.NETFramework\v4.6.1\System.IO.Compression.dll"
-r:"C:\Program Files (x86)\Reference Assemblies\Microsoft\Framework\.NETFramework\v4.6.1\System.Net.Http.dll"
-r:"C:\Program Files (x86)\Reference Assemblies\Microsoft\Framework\.NETFramework\v4.6.1\System.IdentityModel.dll"
-r:"C:\Program Files (x86)\Reference Assemblies\Microsoft\Framework\.NETFramework\v4.6.1\System.Net.Http.WebRequest.dll"
-r:"C:\Program Files (x86)\Reference Assemblies\Microsoft\Framework\.NETFramework\v4.6.1\System.ServiceModel.dll"
-r:"C:\Program Files (x86)\Reference Assemblies\Microsoft\Framework\.NETFramework\v4.6.1\System.Numerics.dll"
-r:"C:\Program Files (x86)\Reference Assemblies\Microsoft\Framework\.NETFramework\v4.6.1\System.Runtime.Serialization.dll"
-resource:"C:\Users\SUPER-PC\Desktop\Новая папка (2)\shipsharp\WebApplication1\src\WebApplication1\obj\Debug\net461\WebApplication1dotnet-compile.deps.json",WebApplication1.deps.json
"C:\Users\SUPER-PC\Desktop\Новая папка (2)\shipsharp\WebApplication1\src\WebApplication1\Program.cs"
"C:\Users\SUPER-PC\Desktop\Новая папка (2)\shipsharp\WebApplication1\src\WebApplication1\Startup.cs"
"C:\Users\SUPER-PC\Desktop\Новая папка (2)\shipsharp\WebApplication1\src\WebApplication1\Controllers\HomeController.cs"
