﻿-d:DEBUG
-d:TRACE
-d:NETSTANDARD1_6
-nowarn:CS1701
-nowarn:CS1702
-nowarn:CS1705
-t:library
-debug:full
-nostdlib
-nologo
"C:\Users\SUPER-PC\Desktop\Новая папка (2)\shipsharp\WebApplication1\src\WebApplication1.ViewModels\obj\Debug\netstandard1.6\dotnet-compile.assemblyinfo.cs"
-out:"C:\Users\SUPER-PC\Desktop\Новая папка (2)\shipsharp\WebApplication1\src\WebApplication1.ViewModels\bin\Debug\netstandard1.6\WebApplication1.ViewModels.dll"
-r:"C:\Users\SUPER-PC\.nuget\packages\Microsoft.ApplicationInsights\2.1.0\lib\dotnet5.4\Microsoft.ApplicationInsights.dll"
-r:"C:\Users\SUPER-PC\.nuget\packages\Microsoft.ApplicationInsights.AspNetCore\1.0.0\lib\netstandard1.6\Microsoft.ApplicationInsights.AspNetCore.dll"
-r:"C:\Users\SUPER-PC\.nuget\packages\Microsoft.AspNetCore.Antiforgery\1.0.0\lib\netstandard1.3\Microsoft.AspNetCore.Antiforgery.dll"
-r:"C:\Users\SUPER-PC\.nuget\packages\Microsoft.AspNetCore.Authorization\1.0.0\lib\netstandard1.3\Microsoft.AspNetCore.Authorization.dll"
-r:"C:\Users\SUPER-PC\.nuget\packages\Microsoft.AspNetCore.Cryptography.Internal\1.0.0\lib\netstandard1.3\Microsoft.AspNetCore.Cryptography.Internal.dll"
-r:"C:\Users\SUPER-PC\.nuget\packages\Microsoft.AspNetCore.DataProtection\1.0.0\lib\netstandard1.3\Microsoft.AspNetCore.DataProtection.dll"
-r:"C:\Users\SUPER-PC\.nuget\packages\Microsoft.AspNetCore.DataProtection.Abstractions\1.0.0\lib\netstandard1.3\Microsoft.AspNetCore.DataProtection.Abstractions.dll"
-r:"C:\Users\SUPER-PC\.nuget\packages\Microsoft.AspNetCore.Diagnostics.Abstractions\1.0.0\lib\netstandard1.0\Microsoft.AspNetCore.Diagnostics.Abstractions.dll"
-r:"C:\Users\SUPER-PC\.nuget\packages\Microsoft.AspNetCore.Hosting.Abstractions\1.0.0\lib\netstandard1.3\Microsoft.AspNetCore.Hosting.Abstractions.dll"
-r:"C:\Users\SUPER-PC\.nuget\packages\Microsoft.AspNetCore.Hosting.Server.Abstractions\1.0.0\lib\netstandard1.3\Microsoft.AspNetCore.Hosting.Server.Abstractions.dll"
-r:"C:\Users\SUPER-PC\.nuget\packages\Microsoft.AspNetCore.Html.Abstractions\1.0.0\lib\netstandard1.0\Microsoft.AspNetCore.Html.Abstractions.dll"
-r:"C:\Users\SUPER-PC\.nuget\packages\Microsoft.AspNetCore.Http\1.0.0\lib\netstandard1.3\Microsoft.AspNetCore.Http.dll"
-r:"C:\Users\SUPER-PC\.nuget\packages\Microsoft.AspNetCore.Http.Abstractions\1.0.0\lib\netstandard1.3\Microsoft.AspNetCore.Http.Abstractions.dll"
-r:"C:\Users\SUPER-PC\.nuget\packages\Microsoft.AspNetCore.Http.Extensions\1.0.0\lib\netstandard1.3\Microsoft.AspNetCore.Http.Extensions.dll"
-r:"C:\Users\SUPER-PC\.nuget\packages\Microsoft.AspNetCore.Http.Features\1.0.0\lib\netstandard1.3\Microsoft.AspNetCore.Http.Features.dll"
-r:"C:\Users\SUPER-PC\.nuget\packages\Microsoft.AspNetCore.JsonPatch\1.0.0\lib\netstandard1.1\Microsoft.AspNetCore.JsonPatch.dll"
-r:"C:\Users\SUPER-PC\.nuget\packages\Microsoft.AspNetCore.Mvc.Abstractions\1.0.0\lib\netstandard1.3\Microsoft.AspNetCore.Mvc.Abstractions.dll"
-r:"C:\Users\SUPER-PC\.nuget\packages\Microsoft.AspNetCore.Mvc.Core\1.0.0\lib\netstandard1.6\Microsoft.AspNetCore.Mvc.Core.dll"
-r:"C:\Users\SUPER-PC\.nuget\packages\Microsoft.AspNetCore.Mvc.DataAnnotations\1.0.0\lib\netstandard1.6\Microsoft.AspNetCore.Mvc.DataAnnotations.dll"
-r:"C:\Users\SUPER-PC\.nuget\packages\Microsoft.AspNetCore.Mvc.Formatters.Json\1.0.0\lib\netstandard1.6\Microsoft.AspNetCore.Mvc.Formatters.Json.dll"
-r:"C:\Users\SUPER-PC\.nuget\packages\Microsoft.AspNetCore.Mvc.ViewFeatures\1.0.0\lib\netstandard1.6\Microsoft.AspNetCore.Mvc.ViewFeatures.dll"
-r:"C:\Users\SUPER-PC\.nuget\packages\Microsoft.AspNetCore.Routing\1.0.0\lib\netstandard1.3\Microsoft.AspNetCore.Routing.dll"
-r:"C:\Users\SUPER-PC\.nuget\packages\Microsoft.AspNetCore.Routing.Abstractions\1.0.0\lib\netstandard1.3\Microsoft.AspNetCore.Routing.Abstractions.dll"
-r:"C:\Users\SUPER-PC\.nuget\packages\Microsoft.AspNetCore.WebUtilities\1.0.0\lib\netstandard1.3\Microsoft.AspNetCore.WebUtilities.dll"
-r:"C:\Users\SUPER-PC\.nuget\packages\Microsoft.CSharp\4.0.1\ref\netstandard1.0\Microsoft.CSharp.dll"
-r:"C:\Users\SUPER-PC\.nuget\packages\Microsoft.DotNet.InternalAbstractions\1.0.0\lib\netstandard1.3\Microsoft.DotNet.InternalAbstractions.dll"
-r:"C:\Users\SUPER-PC\.nuget\packages\Microsoft.Extensions.Configuration\1.0.0\lib\netstandard1.1\Microsoft.Extensions.Configuration.dll"
-r:"C:\Users\SUPER-PC\.nuget\packages\Microsoft.Extensions.Configuration.Abstractions\1.0.0\lib\netstandard1.0\Microsoft.Extensions.Configuration.Abstractions.dll"
-r:"C:\Users\SUPER-PC\.nuget\packages\Microsoft.Extensions.DependencyInjection.Abstractions\1.0.0\lib\netstandard1.0\Microsoft.Extensions.DependencyInjection.Abstractions.dll"
-r:"C:\Users\SUPER-PC\.nuget\packages\Microsoft.Extensions.DependencyModel\1.0.0\lib\netstandard1.6\Microsoft.Extensions.DependencyModel.dll"
-r:"C:\Users\SUPER-PC\.nuget\packages\Microsoft.Extensions.DiagnosticAdapter\1.0.0\lib\netstandard1.1\Microsoft.Extensions.DiagnosticAdapter.dll"
-r:"C:\Users\SUPER-PC\.nuget\packages\Microsoft.Extensions.FileProviders.Abstractions\1.0.0\lib\netstandard1.0\Microsoft.Extensions.FileProviders.Abstractions.dll"
-r:"C:\Users\SUPER-PC\.nuget\packages\Microsoft.Extensions.Localization\1.0.0\lib\netstandard1.3\Microsoft.Extensions.Localization.dll"
-r:"C:\Users\SUPER-PC\.nuget\packages\Microsoft.Extensions.Localization.Abstractions\1.0.0\lib\netstandard1.0\Microsoft.Extensions.Localization.Abstractions.dll"
-r:"C:\Users\SUPER-PC\.nuget\packages\Microsoft.Extensions.Logging.Abstractions\1.0.0\lib\netstandard1.1\Microsoft.Extensions.Logging.Abstractions.dll"
-r:"C:\Users\SUPER-PC\.nuget\packages\Microsoft.Extensions.ObjectPool\1.0.0\lib\netstandard1.3\Microsoft.Extensions.ObjectPool.dll"
-r:"C:\Users\SUPER-PC\.nuget\packages\Microsoft.Extensions.Options\1.0.0\lib\netstandard1.0\Microsoft.Extensions.Options.dll"
-r:"C:\Users\SUPER-PC\.nuget\packages\Microsoft.Extensions.PlatformAbstractions\1.0.0\lib\netstandard1.3\Microsoft.Extensions.PlatformAbstractions.dll"
-r:"C:\Users\SUPER-PC\.nuget\packages\Microsoft.Extensions.Primitives\1.0.0\lib\netstandard1.0\Microsoft.Extensions.Primitives.dll"
-r:"C:\Users\SUPER-PC\.nuget\packages\Microsoft.Extensions.WebEncoders\1.0.0\lib\netstandard1.0\Microsoft.Extensions.WebEncoders.dll"
-r:"C:\Users\SUPER-PC\.nuget\packages\Microsoft.Net.Http.Headers\1.0.0\lib\netstandard1.1\Microsoft.Net.Http.Headers.dll"
-r:"C:\Users\SUPER-PC\.nuget\packages\Microsoft.Win32.Primitives\4.0.1\ref\netstandard1.3\Microsoft.Win32.Primitives.dll"
-r:"C:\Users\SUPER-PC\.nuget\packages\Microsoft.Win32.Registry\4.0.0\ref\netstandard1.3\Microsoft.Win32.Registry.dll"
-r:"C:\Users\SUPER-PC\.nuget\packages\Newtonsoft.Json\9.0.1\lib\netstandard1.0\Newtonsoft.Json.dll"
-r:"C:\Users\SUPER-PC\.nuget\packages\System.AppContext\4.1.0\ref\netstandard1.6\System.AppContext.dll"
-r:"C:\Users\SUPER-PC\.nuget\packages\System.Buffers\4.0.0\lib\netstandard1.1\System.Buffers.dll"
-r:"C:\Users\SUPER-PC\.nuget\packages\System.Collections\4.3.0\ref\netstandard1.3\System.Collections.dll"
-r:"C:\Users\SUPER-PC\.nuget\packages\System.Collections.Concurrent\4.0.12\ref\netstandard1.3\System.Collections.Concurrent.dll"
-r:"C:\Users\SUPER-PC\.nuget\packages\System.Collections.NonGeneric\4.0.1\ref\netstandard1.3\System.Collections.NonGeneric.dll"
-r:"C:\Users\SUPER-PC\.nuget\packages\System.ComponentModel\4.3.0\ref\netstandard1.0\System.ComponentModel.dll"
-r:"C:\Users\SUPER-PC\.nuget\packages\System.ComponentModel.Annotations\4.3.0\ref\netstandard1.4\System.ComponentModel.Annotations.dll"
-r:"C:\Users\SUPER-PC\.nuget\packages\System.ComponentModel.Primitives\4.1.0\ref\netstandard1.0\System.ComponentModel.Primitives.dll"
-r:"C:\Users\SUPER-PC\.nuget\packages\System.ComponentModel.TypeConverter\4.1.0\ref\netstandard1.5\System.ComponentModel.TypeConverter.dll"
-r:"C:\Users\SUPER-PC\.nuget\packages\System.Console\4.0.0\ref\netstandard1.3\System.Console.dll"
-r:"C:\Users\SUPER-PC\.nuget\packages\System.Diagnostics.Contracts\4.0.1\ref\netstandard1.0\System.Diagnostics.Contracts.dll"
-r:"C:\Users\SUPER-PC\.nuget\packages\System.Diagnostics.Debug\4.3.0\ref\netstandard1.3\System.Diagnostics.Debug.dll"
-r:"C:\Users\SUPER-PC\.nuget\packages\System.Diagnostics.DiagnosticSource\4.0.0\lib\netstandard1.3\System.Diagnostics.DiagnosticSource.dll"
-r:"C:\Users\SUPER-PC\.nuget\packages\System.Diagnostics.Tools\4.0.1\ref\netstandard1.0\System.Diagnostics.Tools.dll"
-r:"C:\Users\SUPER-PC\.nuget\packages\System.Diagnostics.Tracing\4.1.0\ref\netstandard1.5\System.Diagnostics.Tracing.dll"
-r:"C:\Users\SUPER-PC\.nuget\packages\System.Dynamic.Runtime\4.0.11\ref\netstandard1.3\System.Dynamic.Runtime.dll"
-r:"C:\Users\SUPER-PC\.nuget\packages\System.Globalization\4.3.0\ref\netstandard1.3\System.Globalization.dll"
-r:"C:\Users\SUPER-PC\.nuget\packages\System.Globalization.Calendars\4.0.1\ref\netstandard1.3\System.Globalization.Calendars.dll"
-r:"C:\Users\SUPER-PC\.nuget\packages\System.Globalization.Extensions\4.0.1\ref\netstandard1.3\System.Globalization.Extensions.dll"
-r:"C:\Users\SUPER-PC\.nuget\packages\System.IO\4.3.0\ref\netstandard1.5\System.IO.dll"
-r:"C:\Users\SUPER-PC\.nuget\packages\System.IO.Compression\4.1.0\ref\netstandard1.3\System.IO.Compression.dll"
-r:"C:\Users\SUPER-PC\.nuget\packages\System.IO.Compression.ZipFile\4.0.1\ref\netstandard1.3\System.IO.Compression.ZipFile.dll"
-r:"C:\Users\SUPER-PC\.nuget\packages\System.IO.FileSystem\4.0.1\ref\netstandard1.3\System.IO.FileSystem.dll"
-r:"C:\Users\SUPER-PC\.nuget\packages\System.IO.FileSystem.Primitives\4.0.1\ref\netstandard1.3\System.IO.FileSystem.Primitives.dll"
-r:"C:\Users\SUPER-PC\.nuget\packages\System.Linq\4.3.0\ref\netstandard1.6\System.Linq.dll"
-r:"C:\Users\SUPER-PC\.nuget\packages\System.Linq.Expressions\4.1.0\ref\netstandard1.6\System.Linq.Expressions.dll"
-r:"C:\Users\SUPER-PC\.nuget\packages\System.Net.Http\4.1.0\ref\netstandard1.3\System.Net.Http.dll"
-r:"C:\Users\SUPER-PC\.nuget\packages\System.Net.NameResolution\4.0.0\ref\netstandard1.3\System.Net.NameResolution.dll"
-r:"C:\Users\SUPER-PC\.nuget\packages\System.Net.Primitives\4.0.11\ref\netstandard1.3\System.Net.Primitives.dll"
-r:"C:\Users\SUPER-PC\.nuget\packages\System.Net.Sockets\4.1.0\ref\netstandard1.3\System.Net.Sockets.dll"
-r:"C:\Users\SUPER-PC\.nuget\packages\System.Net.WebSockets\4.0.0\ref\netstandard1.3\System.Net.WebSockets.dll"
-r:"C:\Users\SUPER-PC\.nuget\packages\System.ObjectModel\4.0.12\ref\netstandard1.3\System.ObjectModel.dll"
-r:"C:\Users\SUPER-PC\.nuget\packages\System.Reflection\4.3.0\ref\netstandard1.5\System.Reflection.dll"
-r:"C:\Users\SUPER-PC\.nuget\packages\System.Reflection.Emit\4.0.1\ref\netstandard1.1\System.Reflection.Emit.dll"
-r:"C:\Users\SUPER-PC\.nuget\packages\System.Reflection.Emit.ILGeneration\4.0.1\ref\netstandard1.0\System.Reflection.Emit.ILGeneration.dll"
-r:"C:\Users\SUPER-PC\.nuget\packages\System.Reflection.Emit.Lightweight\4.0.1\ref\netstandard1.0\System.Reflection.Emit.Lightweight.dll"
-r:"C:\Users\SUPER-PC\.nuget\packages\System.Reflection.Extensions\4.3.0\ref\netstandard1.0\System.Reflection.Extensions.dll"
-r:"C:\Users\SUPER-PC\.nuget\packages\System.Reflection.Primitives\4.3.0\ref\netstandard1.0\System.Reflection.Primitives.dll"
-r:"C:\Users\SUPER-PC\.nuget\packages\System.Reflection.TypeExtensions\4.1.0\ref\netstandard1.5\System.Reflection.TypeExtensions.dll"
-r:"C:\Users\SUPER-PC\.nuget\packages\System.Resources.Reader\4.0.0\lib\netstandard1.0\System.Resources.Reader.dll"
-r:"C:\Users\SUPER-PC\.nuget\packages\System.Resources.ResourceManager\4.3.0\ref\netstandard1.0\System.Resources.ResourceManager.dll"
-r:"C:\Users\SUPER-PC\.nuget\packages\System.Runtime\4.3.0\ref\netstandard1.5\System.Runtime.dll"
-r:"C:\Users\SUPER-PC\.nuget\packages\System.Runtime.Extensions\4.3.0\ref\netstandard1.5\System.Runtime.Extensions.dll"
-r:"C:\Users\SUPER-PC\.nuget\packages\System.Runtime.Handles\4.0.1\ref\netstandard1.3\System.Runtime.Handles.dll"
-r:"C:\Users\SUPER-PC\.nuget\packages\System.Runtime.InteropServices\4.1.0\ref\netstandard1.5\System.Runtime.InteropServices.dll"
-r:"C:\Users\SUPER-PC\.nuget\packages\System.Runtime.InteropServices.RuntimeInformation\4.0.0\ref\netstandard1.1\System.Runtime.InteropServices.RuntimeInformation.dll"
-r:"C:\Users\SUPER-PC\.nuget\packages\System.Runtime.Numerics\4.0.1\ref\netstandard1.1\System.Runtime.Numerics.dll"
-r:"C:\Users\SUPER-PC\.nuget\packages\System.Runtime.Serialization.Primitives\4.1.1\ref\netstandard1.3\System.Runtime.Serialization.Primitives.dll"
-r:"C:\Users\SUPER-PC\.nuget\packages\System.Security.Claims\4.0.1\ref\netstandard1.3\System.Security.Claims.dll"
-r:"C:\Users\SUPER-PC\.nuget\packages\System.Security.Cryptography.Algorithms\4.2.0\ref\netstandard1.6\System.Security.Cryptography.Algorithms.dll"
-r:"C:\Users\SUPER-PC\.nuget\packages\System.Security.Cryptography.Encoding\4.0.0\ref\netstandard1.3\System.Security.Cryptography.Encoding.dll"
-r:"C:\Users\SUPER-PC\.nuget\packages\System.Security.Cryptography.Primitives\4.0.0\ref\netstandard1.3\System.Security.Cryptography.Primitives.dll"
-r:"C:\Users\SUPER-PC\.nuget\packages\System.Security.Cryptography.X509Certificates\4.1.0\ref\netstandard1.4\System.Security.Cryptography.X509Certificates.dll"
-r:"C:\Users\SUPER-PC\.nuget\packages\System.Security.Principal\4.0.1\ref\netstandard1.0\System.Security.Principal.dll"
-r:"C:\Users\SUPER-PC\.nuget\packages\System.Security.Principal.Windows\4.0.0\ref\netstandard1.3\System.Security.Principal.Windows.dll"
-r:"C:\Users\SUPER-PC\.nuget\packages\System.Text.Encoding\4.3.0\ref\netstandard1.3\System.Text.Encoding.dll"
-r:"C:\Users\SUPER-PC\.nuget\packages\System.Text.Encoding.Extensions\4.0.11\ref\netstandard1.3\System.Text.Encoding.Extensions.dll"
-r:"C:\Users\SUPER-PC\.nuget\packages\System.Text.Encodings.Web\4.0.0\lib\netstandard1.0\System.Text.Encodings.Web.dll"
-r:"C:\Users\SUPER-PC\.nuget\packages\System.Text.RegularExpressions\4.3.0\ref\netstandard1.6\System.Text.RegularExpressions.dll"
-r:"C:\Users\SUPER-PC\.nuget\packages\System.Threading\4.3.0\ref\netstandard1.3\System.Threading.dll"
-r:"C:\Users\SUPER-PC\.nuget\packages\System.Threading.Tasks\4.3.0\ref\netstandard1.3\System.Threading.Tasks.dll"
-r:"C:\Users\SUPER-PC\.nuget\packages\System.Threading.Timer\4.0.1\ref\netstandard1.2\System.Threading.Timer.dll"
-r:"C:\Users\SUPER-PC\.nuget\packages\System.Xml.ReaderWriter\4.0.11\ref\netstandard1.3\System.Xml.ReaderWriter.dll"
-r:"C:\Users\SUPER-PC\.nuget\packages\System.Xml.XDocument\4.0.11\ref\netstandard1.3\System.Xml.XDocument.dll"
"C:\Users\SUPER-PC\Desktop\Новая папка (2)\shipsharp\WebApplication1\src\WebApplication1.ViewModels\ApplicationRoleListViewModel.cs"
"C:\Users\SUPER-PC\Desktop\Новая папка (2)\shipsharp\WebApplication1\src\WebApplication1.ViewModels\ApplicationRoleViewModel.cs"
"C:\Users\SUPER-PC\Desktop\Новая папка (2)\shipsharp\WebApplication1\src\WebApplication1.ViewModels\EditUserViewModel.cs"
"C:\Users\SUPER-PC\Desktop\Новая папка (2)\shipsharp\WebApplication1\src\WebApplication1.ViewModels\LoginViewModel.cs"
"C:\Users\SUPER-PC\Desktop\Новая папка (2)\shipsharp\WebApplication1\src\WebApplication1.ViewModels\UserListViewModel.cs"
"C:\Users\SUPER-PC\Desktop\Новая папка (2)\shipsharp\WebApplication1\src\WebApplication1.ViewModels\UserViewModel.cs"
"C:\Users\SUPER-PC\Desktop\Новая папка (2)\shipsharp\WebApplication1\src\WebApplication1.ViewModels\Properties\AssemblyInfo.cs"
